…
Constructing point geometries from the nodes
Now that we know what the structure looks like, we can start building some geometries. Starting with nodes should be the easiest since it’s just a pair of latitudes and longitudes in the WGS84 Coordinate Reference System.

We should only extract nodes with at least one tag attached since those have any semantical meaning for analytical purposes. Nodes without any tags could be used to construct ways in the later stages.

SELECT
    id,
    tags,
    ST_POINT(lon, lat) geometry
FROM ST_READOSM('monaco-latest.osm.pbf')
WHERE kind = 'node'
    AND tags IS NOT NULL
    AND cardinality(tags) > 0;

┌─────────────┬─────────────────────────────────────────────────────────┬──────────────────────────────────────────────┐
│     id      │                          tags                           │                   geometry                   │
│    int64    │                  map(varchar, varchar)                  │                   geometry                   │
├─────────────┼─────────────────────────────────────────────────────────┼──────────────────────────────────────────────┤
│    21911886 │ {crossing=zebra, crossing:island=no, crossing_ref=zeb...  │ POINT (7.423498500000001 43.737239900000006) │
│    21912962 │ {crossing=zebra, crossing_ref=zebra, highway=crossing}  │ POINT (7.426912100000001 43.737912800000004) │
│    21914341 │ {crossing=uncontrolled, crossing_ref=zebra, highway=c...  │ POINT (7.4233732 43.737010000000005)         │
│    21915639 │ {highway=traffic_signals}                               │ POINT (7.4256003 43.7404449)                 │
│    21917308 │ {bus=yes, name=Monte-Carlo (Casino), public_transport...  │ POINT (7.4259854 43.740984700000006)         │
│    21918329 │ {crossing=marked, crossing:markings=yes, highway=cros...  │ POINT (7.427889100000001 43.7423616)         │
│    21918589 │ {crossing=marked, crossing:island=yes, crossing:marki...  │ POINT (7.4317478 43.7472774)                 │
│    21918697 │ {crossing=marked, crossing:island=no, crossing:markin...  │ POINT (7.432645000000001 43.747892900000004) │
│    21918939 │ {bus=yes, name=Portier, public_transport=stop_position} │ POINT (7.430429800000001 43.741472800000004) │
│    21919093 │ {crossing=marked, crossing:markings=yes, crossing_ref...  │ POINT (7.4352171 43.748160000000006)         │
│        ·    │                   ·                                     │                  ·                           │
│        ·    │                   ·                                     │                  ·                           │
│        ·    │                   ·                                     │                  ·                           │
│ 11450012980 │ {direction=forward, highway=give_way}                   │ POINT (7.416853100000001 43.735809700000004) │
│ 11450012981 │ {direction=forward, highway=give_way}                   │ POINT (7.416783000000001 43.735872900000004) │
│ 11450012982 │ {direction=forward, highway=give_way}                   │ POINT (7.416664900000001 43.735887000000005) │
│ 11450012983 │ {direction=forward, highway=give_way}                   │ POINT (7.4166968 43.7356945)                 │
│ 11451922579 │ {bus=yes, highway=bus_stop, name=Larvotto, public_tra...  │ POINT (7.435032400000001 43.7481639)         │
│ 11451922580 │ {bus=yes, highway=bus_stop, name=Grimaldi Forum, publ...  │ POINT (7.4311343 43.7442067)                 │
│ 11451922581 │ {bench=yes, bus=yes, highway=bus_stop, name=Portier, ...  │ POINT (7.430357300000001 43.742209100000004) │
│ 11451922582 │ {bench=no, bin=no, bus=yes, highway=bus_stop, lit=yes...  │ POINT (7.4107674 43.7296193)                 │
│ 11451922600 │ {direction=backward, highway=give_way}                  │ POINT (7.4105622 43.7291648)                 │
│ 11452057060 │ {direction=backward, highway=give_way}                  │ POINT (7.419164 43.737116)                   │
├─────────────┴─────────────────────────────────────────────────────────┴──────────────────────────────────────────────┤
│ 3167 rows (20 shown)                                                                                       3 columns │
└──────────────────────────────────────────────────────────────────────────────────────────────────────────────────────┘
…
Select matching ways with tags.
Unnest all nodes refs for each way element and keep them in the proper order (remember – nodes refs order matter!).
Select required nodes with geometries.
Group nodes per way ID and construct a linestring geometry using ST_MakeLinefunction.
Join constructed geometries with tags.
Let’s start with selecting ways with tags.

CREATE TEMP TABLE matching_ways AS 
SELECT id, tags
FROM ST_READOSM('monaco-latest.osm.pbf')
WHERE kind = 'way' AND tags IS NOT NULL AND cardinality(tags) > 0;

SELECT * FROM matching_ways;

┌────────────┬─────────────────────────────────────────────────────────────────┐
│     id     │                              tags                               │
│   int64    │                      map(varchar, varchar)                      │
├────────────┼─────────────────────────────────────────────────────────────────┤
│    4097656 │ {highway=secondary, lanes=2, lit=yes, maxspeed=30, name=Avenu...  │
│    4098197 │ {highway=tertiary, lanes=2, lit=yes, name=Boulevard d`Italie,...  │
│    4224972 │ {highway=residential, lit=yes, name=Avenue des Papalins, onew...  │
│    4224978 │ {access=no, addr:country=MC, leisure=pitch, lit=yes, sport=so...  │
│    4226740 │ {highway=secondary, lanes=2, lit=yes, maxspeed=50, name=Boule...  │
│    4227155 │ {area=yes, highway=pedestrian, lit=yes, name=Place du Palais,...  │
│    4227156 │ {access=no, bus=yes, demolished:highway=service, oneway=yes, ...  │
│    4227157 │ {highway=residential, name=Rue des Remparts, oneway=yes, surf...  │
│    4227158 │ {highway=residential, name=Rue Philibert Florence, oneway=yes...  │
│    4227164 │ {highway=secondary, lanes=2, lit=yes, name=Virage Antony Nogu...  │
│       ·    │                                ·                                │
│       ·    │                                ·                                │
│       ·    │                                ·                                │
│ 1230247124 │ {bench=no, bin=yes, bus=yes, check_date=2023-12-10, covered=y...  │
│ 1230273018 │ {access=yes, leisure=playground, wheelchair=yes}                │
│ 1230273019 │ {highway=footway, surface=paving_stones}                        │
│ 1230398878 │ {abandoned:railway=rail, highway=primary, lanes=2, lit=yes, m...  │
│ 1233828725 │ {highway=service, lit=yes, name=Place Moulins, oneway=yes}      │
│ 1233828726 │ {highway=tertiary, junction=roundabout, lanes=2, lit=yes, non...  │
│ 1233853668 │ {highway=secondary, lanes=2, lit=yes, maxspeed=50, name=Boule...  │
│ 1238339144 │ {cycleway:left=lane, highway=tertiary, lanes=2, lit=yes, maxs...  │
│ 1238339145 │ {cycleway:left=lane, highway=tertiary, lanes=2, lit=yes, maxs...  │
│ 1239415633 │ {footway=sidewalk, highway=footway}                             │
├────────────┴─────────────────────────────────────────────────────────────────┤
│ 4786 rows (20 shown)                                               2 columns │
└──────────────────────────────────────────────────────────────────────────────┘
…
CREATE TEMP TABLE matching_ways_linestrings AS
SELECT
    matching_ways.id,
    matching_ways.tags,
    ST_MakeLine(list(nodes.geometry ORDER BY ref_idx ASC)) linestring
FROM matching_ways
JOIN matching_ways_with_nodes_refs
ON matching_ways.id = matching_ways_with_nodes_refs.id
JOIN required_nodes_with_geometries nodes
ON matching_ways_with_nodes_refs.ref = nodes.id
GROUP BY 1, 2;

SELECT * FROM matching_ways_linestrings;

┌────────────┬──────────────────────┬──────────────────────────────────────────┐
│     id     │         tags         │                linestring                │
│   int64    │ map(varchar, varch...  │                 geometry                 │
├────────────┼──────────────────────┼──────────────────────────────────────────┤
│    4227212 │ {highway=residenti...  │ LINESTRING (7.424979 43.73150620000000...  │
│    4227230 │ {access=yes, admin...  │ LINESTRING (7.4220576 43.7321018, 7.42...  │
│    4227273 │ {highway=secondary...  │ LINESTRING (7.4214168 43.7365583000000...  │
│    4229325 │ {highway=secondary...  │ LINESTRING (7.4201113 43.7373194000000...  │
│    4229900 │ {highway=secondary...  │ LINESTRING (7.4167819 43.7299324, 7.41...  │
│    4230116 │ {highway=footway, ...  │ LINESTRING (7.4302666 43.7467818, 7.43...  │
│   24672725 │ {highway=residenti...  │ LINESTRING (7.4356746 43.7516752, 7.43...  │
│   25082701 │ {area=yes, highway...  │ LINESTRING (7.421602 43.7370201, 7.421...  │
│   31900562 │ {area=yes, floatin...  │ LINESTRING (7.422541900000001 43.73529...  │
│   37794470 │ {admin_level=2, bo...  │ LINESTRING (7.438411400000001 43.74942...  │
│       ·    │        ·             │                    ·                     │
│       ·    │        ·             │                    ·                     │
│       ·    │        ·             │                    ·                     │
│ 1203859766 │ {landuse=grass}      │ LINESTRING (7.4172849 43.7324023000000...  │
│ 1203859775 │ {landuse=grass}      │ LINESTRING (7.417039300000001 43.73209...  │
│ 1218054879 │ {highway=footway, ...  │ LINESTRING (7.4257143 43.7307631000000...  │
│ 1229465608 │ {amenity=shelter, ...  │ LINESTRING (7.417716100000001 43.73075...  │
│ 1230102086 │ {footway=crossing,...  │ LINESTRING (7.414346 43.72708160000000...  │
│ 1230123519 │ {footway=link, hig...  │ LINESTRING (7.4238967 43.7370229, 7.42...  │
│ 1202747620 │ {crossing=unmarked...  │ LINESTRING (7.420526100000001 43.72671...  │
│ 1203858289 │ {crossing=uncontro...  │ LINESTRING (7.4179021 43.7344211000000...  │
│ 1203861575 │ {amenity=parking}    │ LINESTRING (7.430036100000001 43.74015...  │
│ 1203861579 │ {landuse=construct...  │ LINESTRING (7.4323636 43.7423150000000...  │
├────────────┴──────────────────────┴──────────────────────────────────────────┤
│ 4786 rows (20 shown)                                               3 columns │
└──────────────────────────────────────────────────────────────────────────────┘
…
    FROM matching_ways_linestrings
)
SELECT
    matching_ways_linestrings.id,
    matching_ways_linestrings.tags,
    (CASE
        WHEN is_polygon
        THEN ST_MakePolygon(linestring)
        ELSE linestring
    END)::GEOMETRY AS geometry
FROM matching_ways_linestrings
JOIN way_polygon_feature
ON matching_ways_linestrings.id = way_polygon_feature.id;

┌────────────┬──────────────────────┬──────────────────────────────────────────┐
│     id     │         tags         │                 geometry                 │
│   int64    │ map(varchar, varch...  │                 geometry                 │
├────────────┼──────────────────────┼──────────────────────────────────────────┤
│    4226740 │ {highway=secondary...  │ LINESTRING (7.422170500000001 43.73286...  │
│    4227198 │ {highway=residenti...  │ LINESTRING (7.420338900000001 43.73223...  │
│    4227216 │ {highway=service, ...  │ LINESTRING (7.423448400000001 43.73268...  │
│    4227242 │ {highway=secondary...  │ LINESTRING (7.4221786 43.7322418000000...  │
│    4227272 │ {highway=secondary...  │ LINESTRING (7.422117500000001 43.73702...  │
│    4229292 │ {foot=no, highway=...  │ LINESTRING (7.41643 43.7311373, 7.4168...  │
│    4229577 │ {highway=residenti...  │ LINESTRING (7.4251499 43.7397216, 7.42...  │
│    4230122 │ {alt_name=rue R. P...  │ LINESTRING (7.428823400000001 43.74602...  │
│   25082741 │ {highway=secondary...  │ LINESTRING (7.4231414 43.7369886000000...  │
│   25722909 │ {highway=footway, ...  │ LINESTRING (7.423659300000001 43.73134...  │
│       ·    │          ·           │                    ·                     │
│       ·    │          ·           │                    ·                     │
│       ·    │          ·           │                    ·                     │
│ 1089844256 │ {handrail=no, high...  │ LINESTRING (7.4229453 43.7326080000000...  │
│ 1089844296 │ {highway=footway}    │ LINESTRING (7.427017200000001 43.74044...  │
│ 1202570722 │ {access=private, l...  │ POLYGON ((7.4263241 43.7390763, 7.4263...  │
│  946167565 │ {disused:leisure=p...  │ POLYGON ((7.4276993 43.739335100000005...  │
│ 1089844271 │ {highway=footway}    │ LINESTRING (7.4277667 43.732816, 7.427...  │
│  335731716 │ {highway=footway}    │ LINESTRING (7.417764200000001 43.73439...  │
│  779454018 │ {building=resident...  │ POLYGON ((7.4217522 43.7277202, 7.4218...  │
│  943330855 │ {landuse=grass}      │ POLYGON ((7.4151844 43.7332252, 7.4152...  │
│ 1089844229 │ {highway=steps, in...  │ LINESTRING (7.4274525 43.7328052, 7.42...  │
│   49209608 │ {addr:city=Monaco,...  │ POLYGON ((7.4223448 43.7304076, 7.4221...  │
├────────────┴──────────────────────┴──────────────────────────────────────────┤
│ 4786 rows (20 shown)                                               3 columns │
└──────────────────────────────────────────────────────────────────────────────┘
…
CREATE TEMP TABLE matching_relations AS 
SELECT id, tags
FROM ST_READOSM('monaco-latest.osm.pbf')
WHERE kind = 'relation' AND len(refs) > 0
    AND tags IS NOT NULL AND cardinality(tags) > 0
    AND list_contains(map_keys(tags), 'type')
    AND list_has_any(map_extract(tags, 'type'), ['boundary', 'multipolygon']);

SELECT * FROM matching_relations;

┌──────────┬───────────────────────────────────────────────────────────────────┐
│    id    │                               tags                                │
│  int64   │                       map(varchar, varchar)                       │
├──────────┼───────────────────────────────────────────────────────────────────┤
│     7385 │ {ISO3166-2=FR-06, admin_level=6, alt_name:de=Meeralpen, border_...  │
│     8654 │ {ISO3166-2=FR-PAC, admin_level=4, border_type=region, boundary=...  │
│    36990 │ {ISO3166-1=MC, ISO3166-1:alpha2=MC, ISO3166-1:alpha3=MCO, admin...  │
│   174558 │ {admin_level=8, boundary=administrative, name=Roquebrune-Cap-Ma...  │
│   174562 │ {admin_level=8, boundary=administrative, name=Beausoleil, name:...  │
│   174956 │ {admin_level=8, alt_name:it=Capo d`Aglio, boundary=administrati...  │
│   174958 │ {admin_level=8, boundary=administrative, name=La Turbie, name:i...  │
│   393226 │ {building=castle, castle_type=palace, charge=10€, email=visites...  │
│   393481 │ {building=school, name=Pensionnat des Dames de Saint-Maur, type...  │
│  1124039 │ {ISO3166-1=MC, ISO3166-1:alpha2=MC, ISO3166-1:alpha3=MCO, ISO31...  │
│     ·    │                             ·                                     │
│     ·    │                             ·                                     │
│     ·    │                             ·                                     │
│ 14399505 │ {area=yes, floating=yes, man_made=pier, type=multipolygon}        │
│ 16248281 │ {building=apartments, name=F, type=multipolygon}                  │
│ 16248282 │ {building=apartments, name=E, type=multipolygon}                  │
│ 16248283 │ {building=apartments, name=D, type=multipolygon}                  │
│ 16248284 │ {building=apartments, name=C, type=multipolygon}                  │
│ 16248285 │ {building=apartments, name=B, type=multipolygon}                  │
│ 16248286 │ {building=apartments, name=A, type=multipolygon}                  │
│ 16250182 │ {addr:country=MC, alt_name=Parc de la Roseraie, leisure=park, n...  │
│ 16261416 │ {natural=water, type=multipolygon, water=pond}                    │
│ 16467322 │ {admin_level=2, boundary=land_area, land_area=administrative, n...  │
├──────────┴───────────────────────────────────────────────────────────────────┤
│ 78 rows (20 shown)                                                 2 columns │
└──────────────────────────────────────────────────────────────────────────────┘
…
SELECT * FROM required_ways_linestrings;

┌────────────┬─────────────────────────────────────────────────────────────────┐
│     id     │                           linestring                            │
│   int64    │                            geometry                             │
├────────────┼─────────────────────────────────────────────────────────────────┤
│   37794470 │ LINESTRING (7.438411400000001 43.749422300000006, 7.4384056 4...  │
│   87878917 │ LINESTRING (7.418041100000001 43.7256933, 7.4181547 43.725613...  │
│   94252430 │ LINESTRING (7.4141873 43.729494100000004, 7.414203400000001 4...  │
│   94399618 │ LINESTRING (7.4239717 43.740543100000004, 7.4238252 43.740372...  │
│   94399736 │ LINESTRING (7.423881400000001 43.7402971, 7.4239411 43.740265...  │
│  104863462 │ LINESTRING (7.424840000000001 43.731281800000005, 7.424917000...  │
│  120114110 │ LINESTRING (7.420872 43.7370979, 7.4207787 43.7370534, 7.4206...  │
│  156242249 │ LINESTRING (7.4294728 43.739895600000004, 7.429579500000001 4...  │
│  165636038 │ LINESTRING (7.419717100000001 43.732398700000005, 7.419772900...  │
│  169297863 │ LINESTRING (7.422815300000001 43.7321967, 7.4234109 43.732263...  │
│       ·    │                                ·                                │
│       ·    │                                ·                                │
│       ·    │                                ·                                │
│   24874398 │ LINESTRING (7.418523400000001 43.7247599, 7.419012800000001 4...  │
│   92627424 │ LINESTRING (7.4166521 43.7322122, 7.4162303 43.73173910000000...  │
│   94452829 │ LINESTRING (7.4317066 43.7469647, 7.4317998 43.7470371, 7.431...  │
│  335740502 │ LINESTRING (7.4185151 43.7353633, 7.418442000000001 43.735298...  │
│  398377193 │ LINESTRING (7.420872 43.7370979, 7.420939000000001 43.7371298...  │
│  405529436 │ LINESTRING (7.417534900000001 43.7258914, 7.4175347 43.725833...  │
│  423632259 │ LINESTRING (7.4212208 43.7320944, 7.421461300000001 43.732057...  │
│  572935479 │ LINESTRING (7.427508100000001 43.7394168, 7.427496700000001 4...  │
│  586494707 │ LINESTRING (7.4270357 43.739109000000006, 7.4269512 43.739155...  │
│ 1202570715 │ LINESTRING (7.426448400000001 43.739491400000006, 7.4264682 4...  │
├────────────┴─────────────────────────────────────────────────────────────────┤
│ 141 rows (20 shown)                                                2 columns │
└──────────────────────────────────────────────────────────────────────────────┘
…
